id,desc,ct,crate,unit,min,max
1,Ciclomotor,1,10,type,,
2,Menos de 100,1,11,cil,1,99
3,De 100 a 200,1,12,cil,100,200
4,Más de 200,1,13,cil,201,99999
5,"Motocarro, Tricimoto, Cuatriciclo",1,14,type,,
6,Menos de 1.500,2,21,cil,1,1499
8,1.500 a 2.500,2,22,cil,1500,2500
10,Más de 2.500,2,23,cil,2501,99999
12,Menos de 5 TON,3,31,weight,0,4
13,De 5 a 15 TON,3,32,weight,5,15
14,Más de 15 TON,3,33,weight,16,99999
15,Menos de 1.500,4,41,cil,1,1499
16,1.500 a 2.500,4,42,cil,1500,2500
17,Más de 2.500,4,43,cil,2501,99999
18,Menos de 1.500,5,51,cil,1,1499
20,1.500 a 2.500,5,52,cil,1500,2500
22,Más de 2.500,5,53,cil,2501,99999
24,Menos de 2.500,6,61,cil,1,2499
26,2.500 o más,6,62,cil,2500,99999
28,Menos de 1.500,7,71,cil,1,1499
30,1.500 a 2.500,7,72,cil,1500,2500
32,Más de 2.500,7,73,cil,2501,99999
34,Única,8,81,,,
35,Menos de 10 Pasajeros,9,91,pas,1,9
36,10 o más Pasajeros,9,92,pas,10,99999
